        -:    0:Source:my_math.c
        -:    1:// my_math.c
        -:    2:#include "my_math.h"
        -:    3:
        -:    4:// user-defined function to check prime number
function _Z16checkPrimeNumberi called 5 returned 100% blocks executed 100%
        5:    5:int checkPrimeNumber(int n) {
        5:    6:    int j, flag = 1;
        7:    7:    for (j = 2; j <= n / 2; ++j) {
branch  0 taken 71%
branch  1 taken 29% (fallthrough)
        5:    8:        if (n % j == 0) {
branch  0 taken 60% (fallthrough)
branch  1 taken 40%
        3:    9:            flag = 0;
        3:   10:            break;
        -:   11:        }
        -:   12:    }
        5:   13:    return flag;
        -:   14:}
